out.vcd
$date
  Tue Jun 21 18:41:55 2022
$end
$version
  GHDL v0
$end
$timescale
  1 fs
$end
$var reg 1 ! clk_ext $end
$var reg 1 " reset_ext $end
$var reg 3 # wave_sel[2:0] $end
$var reg 8 $ fw_ext[7:0] $end
$var reg 8 % yq_out[7:0] $end
$var reg 1 & testing $end
$scope module i_dut1 $end
$var reg 1 ' clk $end
$var reg 1 ( reset $end
$var reg 3 ) wave[2:0] $end
$var reg 8 * fw[7:0] $end
$var reg 8 + yq[7:0] $end
$var reg 8 , pa_to_lut[7:0] $end
$var reg 8 - lut_output[7:0] $end
$scope module i_pa $end
$var reg 1 . clk $end
$var reg 1 / rst $end
$var reg 8 0 pa_in[7:0] $end
$var reg 8 1 pa_out[7:0] $end
$var reg 8 2 kfw_s[7:0] $end
$var reg 8 3 kfw_next[7:0] $end
$scope module i_adder $end
$var reg 8 4 x[7:0] $end
$var reg 8 5 y[7:0] $end
$var reg 1 6 c0 $end
$var reg 8 7 s[7:0] $end
$var reg 1 8 cn $end
$var reg 9 9 c[8:0] $end
$scope module gen_rca(0) $end
$scope module i_fa $end
$var reg 1 : x $end
$var reg 1 ; y $end
$var reg 1 < cin $end
$var reg 1 = s $end
$var reg 1 > cout $end
$upscope $end
$upscope $end
$scope module gen_rca(1) $end
$scope module i_fa $end
$var reg 1 ? x $end
$var reg 1 @ y $end
$var reg 1 A cin $end
$var reg 1 B s $end
$var reg 1 C cout $end
$upscope $end
$upscope $end
$scope module gen_rca(2) $end
$scope module i_fa $end
$var reg 1 D x $end
$var reg 1 E y $end
$var reg 1 F cin $end
$var reg 1 G s $end
$var reg 1 H cout $end
$upscope $end
$upscope $end
$scope module gen_rca(3) $end
$scope module i_fa $end
$var reg 1 I x $end
$var reg 1 J y $end
$var reg 1 K cin $end
$var reg 1 L s $end
$var reg 1 M cout $end
$upscope $end
$upscope $end
$scope module gen_rca(4) $end
$scope module i_fa $end
$var reg 1 N x $end
$var reg 1 O y $end
$var reg 1 P cin $end
$var reg 1 Q s $end
$var reg 1 R cout $end
$upscope $end
$upscope $end
$scope module gen_rca(5) $end
$scope module i_fa $end
$var reg 1 S x $end
$var reg 1 T y $end
$var reg 1 U cin $end
$var reg 1 V s $end
$var reg 1 W cout $end
$upscope $end
$upscope $end
$scope module gen_rca(6) $end
$scope module i_fa $end
$var reg 1 X x $end
$var reg 1 Y y $end
$var reg 1 Z cin $end
$var reg 1 [ s $end
$var reg 1 \ cout $end
$upscope $end
$upscope $end
$scope module gen_rca(7) $end
$scope module i_fa $end
$var reg 1 ] x $end
$var reg 1 ^ y $end
$var reg 1 _ cin $end
$var reg 1 ` s $end
$var reg 1 a cout $end
$upscope $end
$upscope $end
$upscope $end
$scope module i_reg $end
$var reg 1 b clk $end
$var reg 1 c rst $end
$var reg 8 d d[7:0] $end
$var reg 8 e q[7:0] $end
$scope module reg_gen(0) $end
$scope module i_dff $end
$var reg 1 f clk_dff $end
$var reg 1 g rst_dff $end
$var reg 1 h d_dff $end
$var reg 1 i q_dff $end
$upscope $end
$upscope $end
$scope module reg_gen(1) $end
$scope module i_dff $end
$var reg 1 j clk_dff $end
$var reg 1 k rst_dff $end
$var reg 1 l d_dff $end
$var reg 1 m q_dff $end
$upscope $end
$upscope $end
$scope module reg_gen(2) $end
$scope module i_dff $end
$var reg 1 n clk_dff $end
$var reg 1 o rst_dff $end
$var reg 1 p d_dff $end
$var reg 1 q q_dff $end
$upscope $end
$upscope $end
$scope module reg_gen(3) $end
$scope module i_dff $end
$var reg 1 r clk_dff $end
$var reg 1 s rst_dff $end
$var reg 1 t d_dff $end
$var reg 1 u q_dff $end
$upscope $end
$upscope $end
$scope module reg_gen(4) $end
$scope module i_dff $end
$var reg 1 v clk_dff $end
$var reg 1 w rst_dff $end
$var reg 1 x d_dff $end
$var reg 1 y q_dff $end
$upscope $end
$upscope $end
$scope module reg_gen(5) $end
$scope module i_dff $end
$var reg 1 z clk_dff $end
$var reg 1 { rst_dff $end
$var reg 1 | d_dff $end
$var reg 1 } q_dff $end
$upscope $end
$upscope $end
$scope module reg_gen(6) $end
$scope module i_dff $end
$var reg 1 !" clk_dff $end
$var reg 1 "" rst_dff $end
$var reg 1 #" d_dff $end
$var reg 1 $" q_dff $end
$upscope $end
$upscope $end
$scope module reg_gen(7) $end
$scope module i_dff $end
$var reg 1 %" clk_dff $end
$var reg 1 &" rst_dff $end
$var reg 1 '" d_dff $end
$var reg 1 (" q_dff $end
$upscope $end
$upscope $end
$upscope $end
$upscope $end
$scope module i_lut $end
$var reg 8 )" lut_line[7:0] $end
$var reg 8 *" lut_data[7:0] $end
$upscope $end
$upscope $end
$enddefinitions $end
#0
0!
1"
bUUU #
bUUUUUUUU $
b00000000 %
1&
0'
1(
bUUU )
bUUUUUUUU *
b00000000 +
b00000000 ,
b01111111 -
0.
1/
bUUUUUUUU 0
b00000000 1
b00000000 2
bUUUUUUUU 3
bUUUUUUUU 4
b00000000 5
06
bUUUUUUUU 7
08
b000000000 9
U:
0;
0<
U=
0>
U?
0@
0A
UB
0C
UD
0E
0F
UG
0H
UI
0J
0K
UL
0M
UN
0O
0P
UQ
0R
US
0T
0U
UV
0W
UX
0Y
0Z
U[
0\
U]
0^
0_
U`
0a
0b
1c
bUUUUUUUU d
b00000000 e
0f
1g
Uh
0i
0j
1k
Ul
0m
0n
1o
Up
0q
0r
1s
Ut
0u
0v
1w
Ux
0y
0z
1{
U|
0}
0!"
1""
U#"
0$"
0%"
1&"
U'"
0("
b00000000 )"
b01111111 *"
#500000
1!
1'
1.
1b
1f
1j
1n
1r
1v
1z
1!"
1%"
#1000000
0!
0'
0.
0b
0f
0j
0n
0r
0v
0z
0!"
0%"
#1500000
1!
1'
1.
1b
1f
1j
1n
1r
1v
1z
1!"
1%"
#2000000
0!
0'
0.
0b
0f
0j
0n
0r
0v
0z
0!"
0%"
#2500000
1!
1'
1.
1b
1f
1j
1n
1r
1v
1z
1!"
1%"
#3000000
0!
0'
0.
0b
0f
0j
0n
0r
0v
0z
0!"
0%"
#3500000
1!
1'
1.
1b
1f
1j
1n
1r
1v
1z
1!"
1%"
#4000000
0!
0'
0.
0b
0f
0j
0n
0r
0v
0z
0!"
0%"
#4500000
1!
1'
1.
1b
1f
1j
1n
1r
1v
1z
1!"
1%"
#5000000
0!
0'
0.
0b
0f
0j
0n
0r
0v
0z
0!"
0%"
#5500000
1!
1'
1.
1b
1f
1j
1n
1r
1v
1z
1!"
1%"
#6000000
0!
0'
0.
0b
0f
0j
0n
0r
0v
0z
0!"
0%"
#6500000
1!
1'
1.
1b
1f
1j
1n
1r
1v
1z
1!"
1%"
#7000000
0!
0'
0.
0b
0f
0j
0n
0r
0v
0z
0!"
0%"
#7500000
1!
1'
1.
1b
1f
1j
1n
1r
1v
1z
1!"
1%"
#8000000
0!
0'
0.
0b
0f
0j
0n
0r
0v
0z
0!"
0%"
#8500000
1!
1'
1.
1b
1f
1j
1n
1r
1v
1z
1!"
1%"
#9000000
0!
0'
0.
0b
0f
0j
0n
0r
0v
0z
0!"
0%"
#9500000
1!
1'
1.
1b
1f
1j
1n
1r
1v
1z
1!"
1%"
#10000000
0!
0'
0.
0b
0f
0j
0n
0r
0v
0z
0!"
0%"
#10500000
1!
1'
1.
1b
1f
1j
1n
1r
1v
1z
1!"
1%"
#11000000
0!
0'
0.
0b
0f
0j
0n
0r
0v
0z
0!"
0%"
#11500000
1!
1'
1.
1b
1f
1j
1n
1r
1v
1z
1!"
1%"
#12000000
0!
0'
0.
0b
0f
0j
0n
0r
0v
0z
0!"
0%"
#12500000
1!
1'
1.
1b
1f
1j
1n
1r
1v
1z
1!"
1%"
#13000000
0!
0'
0.
0b
0f
0j
0n
0r
0v
0z
0!"
0%"
#13500000
1!
1'
1.
1b
1f
1j
1n
1r
1v
1z
1!"
1%"
#14000000
0!
0'
0.
0b
0f
0j
0n
0r
0v
0z
0!"
0%"
#14500000
1!
1'
1.
1b
1f
1j
1n
1r
1v
1z
1!"
1%"
#15000000
0!
0'
0.
0b
0f
0j
0n
0r
0v
0z
0!"
0%"
#15500000
1!
1'
1.
1b
1f
1j
1n
1r
1v
1z
1!"
1%"
#16000000
0!
0'
0.
0b
0f
0j
0n
0r
0v
0z
0!"
0%"
#16500000
1!
1'
1.
1b
1f
1j
1n
1r
1v
1z
1!"
1%"
#17000000
0!
0'
0.
0b
0f
0j
0n
0r
0v
0z
0!"
0%"
#17500000
1!
1'
1.
1b
1f
1j
1n
1r
1v
1z
1!"
1%"
#18000000
0!
0'
0.
0b
0f
0j
0n
0r
0v
0z
0!"
0%"
#18500000
1!
1'
1.
1b
1f
1j
1n
1r
1v
1z
1!"
1%"
#19000000
0!
0'
0.
0b
0f
0j
0n
0r
0v
0z
0!"
0%"
#19500000
1!
1'
1.
1b
1f
1j
1n
1r
1v
1z
1!"
1%"
#20000000
0!
0'
0.
0b
0f
0j
0n
0r
0v
0z
0!"
0%"
#20500000
1!
1'
1.
1b
1f
1j
1n
1r
1v
1z
1!"
1%"
#21000000
0!
0'
0.
0b
0f
0j
0n
0r
0v
0z
0!"
0%"
#21500000
1!
1'
1.
1b
1f
1j
1n
1r
1v
1z
1!"
1%"
#22000000
0!
0'
0.
0b
0f
0j
0n
0r
0v
0z
0!"
0%"
#22500000
1!
1'
1.
1b
1f
1j
1n
1r
1v
1z
1!"
1%"
#23000000
0!
0'
0.
0b
0f
0j
0n
0r
0v
0z
0!"
0%"
#23500000
1!
1'
1.
1b
1f
1j
1n
1r
1v
1z
1!"
1%"
#24000000
0!
0'
0.
0b
0f
0j
0n
0r
0v
0z
0!"
0%"
#24500000
1!
1'
1.
1b
1f
1j
1n
1r
1v
1z
1!"
1%"
#25000000
0!
0'
0.
0b
0f
0j
0n
0r
0v
0z
0!"
0%"
#25500000
1!
1'
1.
1b
1f
1j
1n
1r
1v
1z
1!"
1%"
#26000000
0!
0'
0.
0b
0f
0j
0n
0r
0v
0z
0!"
0%"
#26500000
1!
1'
1.
1b
1f
1j
1n
1r
1v
1z
1!"
1%"
#27000000
0!
0'
0.
0b
0f
0j
0n
0r
0v
0z
0!"
0%"
#27500000
1!
1'
1.
1b
1f
1j
1n
1r
1v
1z
1!"
1%"
#28000000
0!
0'
0.
0b
0f
0j
0n
0r
0v
0z
0!"
0%"
#28500000
1!
1'
1.
1b
1f
1j
1n
1r
1v
1z
1!"
1%"
#29000000
0!
0'
0.
0b
0f
0j
0n
0r
0v
0z
0!"
0%"
#29500000
1!
1'
1.
1b
1f
1j
1n
1r
1v
1z
1!"
1%"
#30000000
0!
0'
0.
0b
0f
0j
0n
0r
0v
0z
0!"
0%"
#30500000
1!
1'
1.
1b
1f
1j
1n
1r
1v
1z
1!"
1%"
#31000000
0!
0'
0.
0b
0f
0j
0n
0r
0v
0z
0!"
0%"
#31500000
1!
1'
1.
1b
1f
1j
1n
1r
1v
1z
1!"
1%"
#32000000
0!
0'
0.
0b
0f
0j
0n
0r
0v
0z
0!"
0%"
#32500000
1!
1'
1.
1b
1f
1j
1n
1r
1v
1z
1!"
1%"
#33000000
0!
0'
0.
0b
0f
0j
0n
0r
0v
0z
0!"
0%"
#33500000
1!
1'
1.
1b
1f
1j
1n
1r
1v
1z
1!"
1%"
#34000000
0!
0'
0.
0b
0f
0j
0n
0r
0v
0z
0!"
0%"
#34500000
1!
1'
1.
1b
1f
1j
1n
1r
1v
1z
1!"
1%"
#35000000
0!
0'
0.
0b
0f
0j
0n
0r
0v
0z
0!"
0%"
#35500000
1!
1'
1.
1b
1f
1j
1n
1r
1v
1z
1!"
1%"
#36000000
0!
0'
0.
0b
0f
0j
0n
0r
0v
0z
0!"
0%"
#36500000
1!
1'
1.
1b
1f
1j
1n
1r
1v
1z
1!"
1%"
#37000000
0!
0'
0.
0b
0f
0j
0n
0r
0v
0z
0!"
0%"
#37500000
1!
1'
1.
1b
1f
1j
1n
1r
1v
1z
1!"
1%"
#38000000
0!
0'
0.
0b
0f
0j
0n
0r
0v
0z
0!"
0%"
#38500000
1!
1'
1.
1b
1f
1j
1n
1r
1v
1z
1!"
1%"
#39000000
0!
0'
0.
0b
0f
0j
0n
0r
0v
0z
0!"
0%"
#39500000
1!
1'
1.
1b
1f
1j
1n
1r
1v
1z
1!"
1%"
#40000000
0!
0'
0.
0b
0f
0j
0n
0r
0v
0z
0!"
0%"
#40500000
1!
1'
1.
1b
1f
1j
1n
1r
1v
1z
1!"
1%"
#41000000
0!
0'
0.
0b
0f
0j
0n
0r
0v
0z
0!"
0%"
#41500000
1!
1'
1.
1b
1f
1j
1n
1r
1v
1z
1!"
1%"
#42000000
0!
0'
0.
0b
0f
0j
0n
0r
0v
0z
0!"
0%"
#42500000
1!
1'
1.
1b
1f
1j
1n
1r
1v
1z
1!"
1%"
#43000000
0!
0'
0.
0b
0f
0j
0n
0r
0v
0z
0!"
0%"
#43500000
1!
1'
1.
1b
1f
1j
1n
1r
1v
1z
1!"
1%"
#44000000
0!
0'
0.
0b
0f
0j
0n
0r
0v
0z
0!"
0%"
#44500000
1!
1'
1.
1b
1f
1j
1n
1r
1v
1z
1!"
1%"
#45000000
0!
0'
0.
0b
0f
0j
0n
0r
0v
0z
0!"
0%"
#45500000
1!
1'
1.
1b
1f
1j
1n
1r
1v
1z
1!"
1%"
#46000000
0!
0'
0.
0b
0f
0j
0n
0r
0v
0z
0!"
0%"
#46500000
1!
1'
1.
1b
1f
1j
1n
1r
1v
1z
1!"
1%"
#47000000
0!
0'
0.
0b
0f
0j
0n
0r
0v
0z
0!"
0%"
#47500000
1!
1'
1.
1b
1f
1j
1n
1r
1v
1z
1!"
1%"
#48000000
0!
0'
0.
0b
0f
0j
0n
0r
0v
0z
0!"
0%"
#48500000
1!
1'
1.
1b
1f
1j
1n
1r
1v
1z
1!"
1%"
#49000000
0!
0'
0.
0b
0f
0j
0n
0r
0v
0z
0!"
0%"
#49500000
1!
1'
1.
1b
1f
1j
1n
1r
1v
1z
1!"
1%"
#50000000
0!
0'
0.
0b
0f
0j
0n
0r
0v
0z
0!"
0%"
#50500000
1!
1'
1.
1b
1f
1j
1n
1r
1v
1z
1!"
1%"
#51000000
0!
0'
0.
0b
0f
0j
0n
0r
0v
0z
0!"
0%"
#51500000
1!
1'
1.
1b
1f
1j
1n
1r
1v
1z
1!"
1%"
#52000000
0!
0'
0.
0b
0f
0j
0n
0r
0v
0z
0!"
0%"
#52500000
1!
1'
1.
1b
1f
1j
1n
1r
1v
1z
1!"
1%"
#53000000
0!
0'
0.
0b
0f
0j
0n
0r
0v
0z
0!"
0%"
#53500000
1!
1'
1.
1b
1f
1j
1n
1r
1v
1z
1!"
1%"
#54000000
0!
0'
0.
0b
0f
0j
0n
0r
0v
0z
0!"
0%"
#54500000
1!
1'
1.
1b
1f
1j
1n
1r
1v
1z
1!"
1%"
#55000000
0!
0'
0.
0b
0f
0j
0n
0r
0v
0z
0!"
0%"
#55500000
1!
1'
1.
1b
1f
1j
1n
1r
1v
1z
1!"
1%"
#56000000
0!
0'
0.
0b
0f
0j
0n
0r
0v
0z
0!"
0%"
#56500000
1!
1'
1.
1b
1f
1j
1n
1r
1v
1z
1!"
1%"
#57000000
0!
0'
0.
0b
0f
0j
0n
0r
0v
0z
0!"
0%"
#57500000
1!
1'
1.
1b
1f
1j
1n
1r
1v
1z
1!"
1%"
#58000000
0!
0'
0.
0b
0f
0j
0n
0r
0v
0z
0!"
0%"
#58500000
1!
1'
1.
1b
1f
1j
1n
1r
1v
1z
1!"
1%"
#59000000
0!
0'
0.
0b
0f
0j
0n
0r
0v
0z
0!"
0%"
#59500000
1!
1'
1.
1b
1f
1j
1n
1r
1v
1z
1!"
1%"
#60000000
0!
0'
0.
0b
0f
0j
0n
0r
0v
0z
0!"
0%"
#60500000
1!
1'
1.
1b
1f
1j
1n
1r
1v
1z
1!"
1%"
#61000000
0!
0'
0.
0b
0f
0j
0n
0r
0v
0z
0!"
0%"
#61500000
1!
1'
1.
1b
1f
1j
1n
1r
1v
1z
1!"
1%"
#62000000
0!
0'
0.
0b
0f
0j
0n
0r
0v
0z
0!"
0%"
#62500000
1!
1'
1.
1b
1f
1j
1n
1r
1v
1z
1!"
1%"
#63000000
0!
0'
0.
0b
0f
0j
0n
0r
0v
0z
0!"
0%"
#63500000
1!
1'
1.
1b
1f
1j
1n
1r
1v
1z
1!"
1%"
#64000000
0!
0'
0.
0b
0f
0j
0n
0r
0v
0z
0!"
0%"
#64500000
1!
1'
1.
1b
1f
1j
1n
1r
1v
1z
1!"
1%"
#65000000
0!
0'
0.
0b
0f
0j
0n
0r
0v
0z
0!"
0%"
#65500000
1!
1'
1.
1b
1f
1j
1n
1r
1v
1z
1!"
1%"
#66000000
0!
0'
0.
0b
0f
0j
0n
0r
0v
0z
0!"
0%"
#66500000
1!
1'
1.
1b
1f
1j
1n
1r
1v
1z
1!"
1%"
#67000000
0!
0'
0.
0b
0f
0j
0n
0r
0v
0z
0!"
0%"
#67500000
1!
1'
1.
1b
1f
1j
1n
1r
1v
1z
1!"
1%"
#68000000
0!
0'
0.
0b
0f
0j
0n
0r
0v
0z
0!"
0%"
#68500000
1!
1'
1.
1b
1f
1j
1n
1r
1v
1z
1!"
1%"
#69000000
0!
0'
0.
0b
0f
0j
0n
0r
0v
0z
0!"
0%"
#69500000
1!
1'
1.
1b
1f
1j
1n
1r
1v
1z
1!"
1%"
#70000000
0!
0'
0.
0b
0f
0j
0n
0r
0v
0z
0!"
0%"
#70500000
1!
1'
1.
1b
1f
1j
1n
1r
1v
1z
1!"
1%"
#71000000
0!
0'
0.
0b
0f
0j
0n
0r
0v
0z
0!"
0%"
#71500000
1!
1'
1.
1b
1f
1j
1n
1r
1v
1z
1!"
1%"
#72000000
0!
0'
0.
0b
0f
0j
0n
0r
0v
0z
0!"
0%"
#72500000
1!
1'
1.
1b
1f
1j
1n
1r
1v
1z
1!"
1%"
#73000000
0!
0'
0.
0b
0f
0j
0n
0r
0v
0z
0!"
0%"
#73500000
1!
1'
1.
1b
1f
1j
1n
1r
1v
1z
1!"
1%"
#74000000
0!
0'
0.
0b
0f
0j
0n
0r
0v
0z
0!"
0%"
#74500000
1!
1'
1.
1b
1f
1j
1n
1r
1v
1z
1!"
1%"
#75000000
0!
0'
0.
0b
0f
0j
0n
0r
0v
0z
0!"
0%"
#75500000
1!
1'
1.
1b
1f
1j
1n
1r
1v
1z
1!"
1%"
#76000000
0!
0'
0.
0b
0f
0j
0n
0r
0v
0z
0!"
0%"
#76500000
1!
1'
1.
1b
1f
1j
1n
1r
1v
1z
1!"
1%"
#77000000
0!
0'
0.
0b
0f
0j
0n
0r
0v
0z
0!"
0%"
#77500000
1!
1'
1.
1b
1f
1j
1n
1r
1v
1z
1!"
1%"
#78000000
0!
0'
0.
0b
0f
0j
0n
0r
0v
0z
0!"
0%"
#78500000
1!
1'
1.
1b
1f
1j
1n
1r
1v
1z
1!"
1%"
#79000000
0!
0'
0.
0b
0f
0j
0n
0r
0v
0z
0!"
0%"
#79500000
1!
1'
1.
1b
1f
1j
1n
1r
1v
1z
1!"
1%"
#80000000
0!
0"
b110 #
b01000000 $
b11111111 %
0'
0(
b110 )
b01000000 *
b11111111 +
0.
0/
b01000000 0
b01000000 3
b01000000 4
b01000000 7
0:
0=
0?
0B
0D
0G
0I
0L
0N
0Q
0S
0V
1X
1[
0]
0`
0b
0c
b01000000 d
0f
0g
0h
0j
0k
0l
0n
0o
0p
0r
0s
0t
0v
0w
0x
0z
0{
0|
0!"
0""
1#"
0%"
0&"
0'"
#80500000
1!
b10111111 %
1'
b10111111 +
b01000000 ,
b11111110 -
1.
b01000000 1
b01000000 2
b10000000 3
b01000000 5
b10000000 7
b010000000 9
1Y
0[
1\
1_
1`
1b
b10000000 d
b01000000 e
1f
1j
1n
1r
1v
1z
1!"
0#"
1$"
1%"
1'"
b01000000 )"
b11111110 *"
#81000000
0!
0'
0.
0b
0f
0j
0n
0r
0v
0z
0!"
0%"
#81500000
1!
b01111111 %
1'
b01111111 +
b10000000 ,
b01111111 -
1.
b10000000 1
b10000000 2
b11000000 3
b10000000 5
b11000000 7
08
b000000000 9
0Y
1[
0\
1^
0_
1`
0a
1b
b11000000 d
b10000000 e
1f
1j
1n
1r
1v
1z
1!"
1#"
0$"
1%"
1'"
1("
b10000000 )"
b01111111 *"
#82000000
0!
0'
0.
0b
0f
0j
0n
0r
0v
0z
0!"
0%"
#82500000
1!
b00111111 %
1'
b00111111 +
b11000000 ,
b00000000 -
1.
b11000000 1
b11000000 2
b00000000 3
b11000000 5
b00000000 7
18
b110000000 9
1Y
0[
1\
1_
0`
1a
1b
b00000000 d
b11000000 e
1f
1j
1n
1r
1v
1z
1!"
0#"
1$"
1%"
0'"
b11000000 )"
b00000000 *"
#83000000
0!
0'
0.
0b
0f
0j
0n
0r
0v
0z
0!"
0%"
#83500000
1!
b11111111 %
1'
b11111111 +
b00000000 ,
b01111111 -
1.
b00000000 1
b00000000 2
b01000000 3
b00000000 5
b01000000 7
08
b000000000 9
0Y
1[
0\
0^
0_
0`
0a
1b
b01000000 d
b00000000 e
1f
1j
1n
1r
1v
1z
1!"
1#"
0$"
1%"
0'"
0("
b00000000 )"
b01111111 *"
#84000000
0!
0'
0.
0b
0f
0j
0n
0r
0v
0z
0!"
0%"
#84500000
1!
b10111111 %
1'
b10111111 +
b01000000 ,
b11111110 -
1.
b01000000 1
b01000000 2
b10000000 3
b01000000 5
b10000000 7
b010000000 9
1Y
0[
1\
1_
1`
1b
b10000000 d
b01000000 e
1f
1j
1n
1r
1v
1z
1!"
0#"
1$"
1%"
1'"
b01000000 )"
b11111110 *"
#85000000
0!
0'
0.
0b
0f
0j
0n
0r
0v
0z
0!"
0%"
#85500000
1!
b01111111 %
1'
b01111111 +
b10000000 ,
b01111111 -
1.
b10000000 1
b10000000 2
b11000000 3
b10000000 5
b11000000 7
08
b000000000 9
0Y
1[
0\
1^
0_
1`
0a
1b
b11000000 d
b10000000 e
1f
1j
1n
1r
1v
1z
1!"
1#"
0$"
1%"
1'"
1("
b10000000 )"
b01111111 *"
#86000000
0!
0'
0.
0b
0f
0j
0n
0r
0v
0z
0!"
0%"
#86500000
1!
b00111111 %
1'
b00111111 +
b11000000 ,
b00000000 -
1.
b11000000 1
b11000000 2
b00000000 3
b11000000 5
b00000000 7
18
b110000000 9
1Y
0[
1\
1_
0`
1a
1b
b00000000 d
b11000000 e
1f
1j
1n
1r
1v
1z
1!"
0#"
1$"
1%"
0'"
b11000000 )"
b00000000 *"
#87000000
0!
0'
0.
0b
0f
0j
0n
0r
0v
0z
0!"
0%"
#87500000
1!
b11111111 %
1'
b11111111 +
b00000000 ,
b01111111 -
1.
b00000000 1
b00000000 2
b01000000 3
b00000000 5
b01000000 7
08
b000000000 9
0Y
1[
0\
0^
0_
0`
0a
1b
b01000000 d
b00000000 e
1f
1j
1n
1r
1v
1z
1!"
1#"
0$"
1%"
0'"
0("
b00000000 )"
b01111111 *"
#88000000
0!
0'
0.
0b
0f
0j
0n
0r
0v
0z
0!"
0%"
#88500000
1!
b10111111 %
1'
b10111111 +
b01000000 ,
b11111110 -
1.
b01000000 1
b01000000 2
b10000000 3
b01000000 5
b10000000 7
b010000000 9
1Y
0[
1\
1_
1`
1b
b10000000 d
b01000000 e
1f
1j
1n
1r
1v
1z
1!"
0#"
1$"
1%"
1'"
b01000000 )"
b11111110 *"
#89000000
0!
0'
0.
0b
0f
0j
0n
0r
0v
0z
0!"
0%"
#89500000
1!
b01111111 %
1'
b01111111 +
b10000000 ,
b01111111 -
1.
b10000000 1
b10000000 2
b11000000 3
b10000000 5
b11000000 7
08
b000000000 9
0Y
1[
0\
1^
0_
1`
0a
1b
b11000000 d
b10000000 e
1f
1j
1n
1r
1v
1z
1!"
1#"
0$"
1%"
1'"
1("
b10000000 )"
b01111111 *"
#90000000
0!
0'
0.
0b
0f
0j
0n
0r
0v
0z
0!"
0%"
#90500000
1!
b00111111 %
1'
b00111111 +
b11000000 ,
b00000000 -
1.
b11000000 1
b11000000 2
b00000000 3
b11000000 5
b00000000 7
18
b110000000 9
1Y
0[
1\
1_
0`
1a
1b
b00000000 d
b11000000 e
1f
1j
1n
1r
1v
1z
1!"
0#"
1$"
1%"
0'"
b11000000 )"
b00000000 *"
#91000000
0!
0'
0.
0b
0f
0j
0n
0r
0v
0z
0!"
0%"
#91500000
1!
b11111111 %
1'
b11111111 +
b00000000 ,
b01111111 -
1.
b00000000 1
b00000000 2
b01000000 3
b00000000 5
b01000000 7
08
b000000000 9
0Y
1[
0\
0^
0_
0`
0a
1b
b01000000 d
b00000000 e
1f
1j
1n
1r
1v
1z
1!"
1#"
0$"
1%"
0'"
0("
b00000000 )"
b01111111 *"
#92000000
0!
0'
0.
0b
0f
0j
0n
0r
0v
0z
0!"
0%"
#92500000
1!
b10111111 %
1'
b10111111 +
b01000000 ,
b11111110 -
1.
b01000000 1
b01000000 2
b10000000 3
b01000000 5
b10000000 7
b010000000 9
1Y
0[
1\
1_
1`
1b
b10000000 d
b01000000 e
1f
1j
1n
1r
1v
1z
1!"
0#"
1$"
1%"
1'"
b01000000 )"
b11111110 *"
#93000000
0!
0'
0.
0b
0f
0j
0n
0r
0v
0z
0!"
0%"
#93500000
1!
b01111111 %
1'
b01111111 +
b10000000 ,
b01111111 -
1.
b10000000 1
b10000000 2
b11000000 3
b10000000 5
b11000000 7
08
b000000000 9
0Y
1[
0\
1^
0_
1`
0a
1b
b11000000 d
b10000000 e
1f
1j
1n
1r
1v
1z
1!"
1#"
0$"
1%"
1'"
1("
b10000000 )"
b01111111 *"
#94000000
0!
0'
0.
0b
0f
0j
0n
0r
0v
0z
0!"
0%"
#94500000
1!
b00111111 %
1'
b00111111 +
b11000000 ,
b00000000 -
1.
b11000000 1
b11000000 2
b00000000 3
b11000000 5
b00000000 7
18
b110000000 9
1Y
0[
1\
1_
0`
1a
1b
b00000000 d
b11000000 e
1f
1j
1n
1r
1v
1z
1!"
0#"
1$"
1%"
0'"
b11000000 )"
b00000000 *"
#95000000
0!
0'
0.
0b
0f
0j
0n
0r
0v
0z
0!"
0%"
#95500000
1!
b11111111 %
1'
b11111111 +
b00000000 ,
b01111111 -
1.
b00000000 1
b00000000 2
b01000000 3
b00000000 5
b01000000 7
08
b000000000 9
0Y
1[
0\
0^
0_
0`
0a
1b
b01000000 d
b00000000 e
1f
1j
1n
1r
1v
1z
1!"
1#"
0$"
1%"
0'"
0("
b00000000 )"
b01111111 *"
#96000000
0!
0'
0.
0b
0f
0j
0n
0r
0v
0z
0!"
0%"
#96500000
1!
b10111111 %
1'
b10111111 +
b01000000 ,
b11111110 -
1.
b01000000 1
b01000000 2
b10000000 3
b01000000 5
b10000000 7
b010000000 9
1Y
0[
1\
1_
1`
1b
b10000000 d
b01000000 e
1f
1j
1n
1r
1v
1z
1!"
0#"
1$"
1%"
1'"
b01000000 )"
b11111110 *"
#97000000
0!
0'
0.
0b
0f
0j
0n
0r
0v
0z
0!"
0%"
#97500000
1!
b01111111 %
1'
b01111111 +
b10000000 ,
b01111111 -
1.
b10000000 1
b10000000 2
b11000000 3
b10000000 5
b11000000 7
08
b000000000 9
0Y
1[
0\
1^
0_
1`
0a
1b
b11000000 d
b10000000 e
1f
1j
1n
1r
1v
1z
1!"
1#"
0$"
1%"
1'"
1("
b10000000 )"
b01111111 *"
#98000000
0!
0'
0.
0b
0f
0j
0n
0r
0v
0z
0!"
0%"
#98500000
1!
b00111111 %
1'
b00111111 +
b11000000 ,
b00000000 -
1.
b11000000 1
b11000000 2
b00000000 3
b11000000 5
b00000000 7
18
b110000000 9
1Y
0[
1\
1_
0`
1a
1b
b00000000 d
b11000000 e
1f
1j
1n
1r
1v
1z
1!"
0#"
1$"
1%"
0'"
b11000000 )"
b00000000 *"
#99000000
0!
0'
0.
0b
0f
0j
0n
0r
0v
0z
0!"
0%"
#99500000
1!
b11111111 %
1'
b11111111 +
b00000000 ,
b01111111 -
1.
b00000000 1
b00000000 2
b01000000 3
b00000000 5
b01000000 7
08
b000000000 9
0Y
1[
0\
0^
0_
0`
0a
1b
b01000000 d
b00000000 e
1f
1j
1n
1r
1v
1z
1!"
1#"
0$"
1%"
0'"
0("
b00000000 )"
b01111111 *"
#100000000
0!
0'
0.
0b
0f
0j
0n
0r
0v
0z
0!"
0%"
#100500000
1!
b10111111 %
1'
b10111111 +
b01000000 ,
b11111110 -
1.
b01000000 1
b01000000 2
b10000000 3
b01000000 5
b10000000 7
b010000000 9
1Y
0[
1\
1_
1`
1b
b10000000 d
b01000000 e
1f
1j
1n
1r
1v
1z
1!"
0#"
1$"
1%"
1'"
b01000000 )"
b11111110 *"
#101000000
0!
0'
0.
0b
0f
0j
0n
0r
0v
0z
0!"
0%"
#101500000
1!
b01111111 %
1'
b01111111 +
b10000000 ,
b01111111 -
1.
b10000000 1
b10000000 2
b11000000 3
b10000000 5
b11000000 7
08
b000000000 9
0Y
1[
0\
1^
0_
1`
0a
1b
b11000000 d
b10000000 e
1f
1j
1n
1r
1v
1z
1!"
1#"
0$"
1%"
1'"
1("
b10000000 )"
b01111111 *"
#102000000
0!
0'
0.
0b
0f
0j
0n
0r
0v
0z
0!"
0%"
#102500000
1!
b00111111 %
1'
b00111111 +
b11000000 ,
b00000000 -
1.
b11000000 1
b11000000 2
b00000000 3
b11000000 5
b00000000 7
18
b110000000 9
1Y
0[
1\
1_
0`
1a
1b
b00000000 d
b11000000 e
1f
1j
1n
1r
1v
1z
1!"
0#"
1$"
1%"
0'"
b11000000 )"
b00000000 *"
#103000000
0!
0'
0.
0b
0f
0j
0n
0r
0v
0z
0!"
0%"
